<?xml version="1.0" encoding="utf-8"?>
<!-- Generator: Adobe Illustrator 20.0.0, SVG Export Plug-In . SVG Version: 6.00 Build 0)  -->
<svg version="1.1" id="Layer_1" xmlns="http://www.w3.org/2000/svg" xmlns:xlink="http://www.w3.org/1999/xlink" x="0px" y="0px"
	 viewBox="0 0 100 100" style="enable-background:new 0 0 100 100;" xml:space="preserve">
<style type="text/css">
	.st0{fill:#FFFFFF;stroke:#000000;stroke-width:0.75;}
	.st1{fill:#231F20;}
	.st2{fill:#00ADEE;}
	.st3{fill:#FFFFFF;}
</style>
<g>
	<circle class="st0" cx="50.5" cy="51.9" r="36"/>
	<g>
		<path class="st1" d="M25.3,42.7l0.1,0c1,0.3,1.8,1,1.5,2.2c-0.4,1.4-1.4,1.6-3.4,1c-2-0.6-2.7-1.2-2.3-2.6
			c0.4-1.6,1.6-1.3,2.2-1.2l0.1,0l-0.2,0.9l-0.1,0c-0.5-0.1-1.1-0.2-1.3,0.5c-0.2,0.6,0.1,1.1,1.9,1.6c1.8,0.5,2.3,0.3,2.5-0.3
			c0.2-0.7-0.6-1-1.1-1.2l-0.1,0L25.3,42.7z"/>
		<path class="st1" d="M27.9,39.8c0.1,0.1,0.3,0,0.4-0.1c0-0.1,0-0.1,0-0.1l0.5,0.2c0,0.1,0,0.3-0.1,0.4c-0.2,0.3-0.4,0.6-0.8,0.4
			l0,0c0.3,0.4,0.3,0.8,0.1,1.2c-0.3,0.6-0.8,0.9-1.6,0.5c-0.9-0.4-0.9-0.9-0.8-1.5l0.1-0.7c0.1-0.3,0.1-0.5-0.3-0.7
			c-0.4-0.2-0.6-0.1-0.8,0.3c-0.2,0.5,0.1,0.8,0.5,0.9l-0.3,0.7c-0.8-0.4-1.1-0.9-0.6-2c0.3-0.7,0.8-1.1,1.5-0.8L27.9,39.8z
			 M26.3,39.9c0.1,0.3,0,0.8,0,1c0,0.3,0.2,0.5,0.5,0.6c0.3,0.2,0.7,0.1,0.8-0.2c0.2-0.5,0-0.9-0.6-1.1L26.3,39.9z"/>
		<path class="st1" d="M25.6,37l0.5-0.7l0.4,0.3l0,0c-0.2-0.4-0.2-0.9,0.1-1.3c0.4-0.5,0.8-0.7,1.6-0.2l2.7,1.8l-0.5,0.7L27.9,36
			c-0.5-0.3-0.7-0.3-1,0.1c-0.2,0.3-0.2,0.7,0.3,1l2.4,1.6l-0.5,0.7L25.6,37z"/>
		<path class="st1" d="M32.6,33.6c0.1,0.1,0.3,0.1,0.4,0c0,0,0.1-0.1,0.1-0.1l0.4,0.4c0,0.1-0.1,0.3-0.2,0.4
			c-0.3,0.3-0.6,0.4-0.9,0.2l0,0c0.2,0.5,0.1,0.8-0.3,1.2c-0.5,0.5-1,0.6-1.6,0c-0.7-0.6-0.6-1.1-0.3-1.6l0.3-0.6
			c0.1-0.3,0.2-0.5-0.1-0.7c-0.3-0.3-0.6-0.3-0.9,0c-0.4,0.4-0.1,0.8,0.2,1l-0.6,0.6c-0.7-0.6-0.8-1.2,0-2.1
			c0.5-0.6,1.1-0.8,1.7-0.3L32.6,33.6z M31,33.2c0,0.3-0.3,0.7-0.4,1c-0.1,0.3,0,0.5,0.3,0.7c0.3,0.2,0.6,0.3,0.8,0
			c0.4-0.4,0.2-0.8-0.2-1.3L31,33.2z"/>
		<path class="st1" d="M35.3,31.8L35.3,31.8c0.1,0.3,0.1,0.7-0.3,1.1c-0.8,0.6-1.6,0.2-2.5-0.9c-1.2-1.5-0.9-2.1-0.3-2.6
			c0.4-0.3,0.8-0.3,1.1-0.1l0,0L32,27.7l0.7-0.5l3.6,4.5l-0.6,0.5L35.3,31.8z M32.7,29.8c-0.4,0.3-0.3,0.7,0.5,1.6
			c0.6,0.8,1.1,1.2,1.6,0.8c0.5-0.4,0.2-0.9-0.4-1.6C33.6,29.7,33.2,29.3,32.7,29.8z"/>
		<path class="st1" d="M33.9,26.3l0.7-0.5l0.5,0.7L34.4,27L33.9,26.3z M34.7,27.6l0.7-0.5l2.3,3.6L37,31.2L34.7,27.6z"/>
		<path class="st1" d="M40.6,28.2c0.1,0.1,0.2,0.2,0.3,0.2c0.1,0,0.1-0.1,0.1-0.1l0.2,0.5c-0.1,0.1-0.2,0.2-0.3,0.3
			c-0.3,0.2-0.7,0.2-0.9-0.2l0,0c0,0.5-0.2,0.8-0.7,1c-0.6,0.3-1.2,0.1-1.5-0.6c-0.4-0.9-0.1-1.2,0.3-1.7l0.5-0.5
			c0.2-0.2,0.4-0.4,0.2-0.7c-0.2-0.4-0.4-0.5-0.8-0.3c-0.5,0.3-0.4,0.7-0.2,1l-0.7,0.4c-0.4-0.8-0.3-1.4,0.7-1.9
			c0.7-0.3,1.4-0.3,1.7,0.4L40.6,28.2z M39.3,27.3c-0.1,0.3-0.5,0.6-0.7,0.8c-0.2,0.2-0.2,0.5,0,0.8c0.2,0.3,0.4,0.5,0.8,0.4
			c0.5-0.2,0.5-0.7,0.3-1.3L39.3,27.3z"/>
		<path class="st1" d="M40.6,24.6l0.8-0.2l0.1,0.5l0,0c0.1-0.4,0.4-0.8,0.9-0.9c0.6-0.2,1.1,0,1.4,0.8l0.9,3.1l-0.8,0.3L43,25.3
			c-0.2-0.5-0.4-0.7-0.8-0.6c-0.3,0.1-0.6,0.5-0.4,1l0.8,2.8l-0.8,0.3L40.6,24.6z"/>
		<path class="st1" d="M47.2,21.6l0.9,0l0.1,2.3l1.7-0.1l-0.1-2.3l0.9,0l0.3,5.7l-0.9,0l-0.1-2.7l-1.7,0.1l0.1,2.7l-0.9,0L47.2,21.6
			z"/>
		<path class="st1" d="M53.8,23c1.2,0.1,1.5,1.1,1.3,2.4c-0.2,1.3-0.7,2.2-1.9,2.1c-1.2-0.1-1.5-1.1-1.3-2.4
			C52.1,23.7,52.5,22.8,53.8,23z M53.3,26.8c0.6,0.1,0.8-0.4,0.9-1.5c0.1-0.9,0.1-1.6-0.6-1.7c-0.6-0.1-0.8,0.6-0.9,1.5
			C52.7,26.2,52.7,26.7,53.3,26.8z"/>
		<path class="st1" d="M56.9,23.5l0.8,0.2l-0.2,0.5l0,0c0.3-0.3,0.8-0.4,1.2-0.3c0.6,0.2,0.7,0.5,0.8,0.9c0.4-0.3,0.7-0.5,1.2-0.3
			c0.6,0.2,0.9,0.6,0.7,1.4l-1,3.1l-0.8-0.3l0.9-2.8c0.2-0.5,0.1-0.8-0.3-0.9c-0.3-0.1-0.7,0.1-0.9,0.6l-0.9,2.8l-0.8-0.3l0.9-2.8
			c0.2-0.5,0.1-0.8-0.3-0.9c-0.3-0.1-0.7,0.1-0.9,0.6l-0.9,2.8l-0.8-0.3L56.9,23.5z"/>
		<path class="st1" d="M62.8,28.1l-0.1,0.2c-0.3,0.5-0.6,1.2,0,1.5c0.5,0.3,0.9-0.3,1.1-0.5l0.7,0.4c-0.5,0.8-1.3,1.1-2.1,0.6
			c-0.6-0.3-1.3-0.9-0.3-2.7c0.5-1,1.3-1.9,2.5-1.3c1.1,0.6,1,1.4,0.4,2.4l-0.2,0.4L62.8,28.1z M64.3,28.3l0.1-0.2
			c0.3-0.5,0.3-0.9-0.1-1.2c-0.5-0.3-0.9,0.1-1.2,0.6l0,0.1L64.3,28.3z"/>
		<path class="st1" d="M69.1,27.8l0.7,0.6l-2.3,4.1l0,0l3.8-2.7l0.7,0.6l-4.9,3.3l-0.9-0.8L69.1,27.8z"/>
		<path class="st1" d="M71.7,32.1l0.6,0.6l-3.2,2.9L68.5,35L71.7,32.1z M72.8,31.1l0.6,0.6l-0.6,0.6l-0.6-0.6L72.8,31.1z"/>
		<path class="st1" d="M71.4,37.8L71.4,37.8c-0.3,0.1-0.7,0.1-1.1-0.4c-0.6-0.8-0.1-1.6,1.1-2.5c1.6-1.1,2.2-0.7,2.6-0.2
			c0.3,0.4,0.3,0.8,0.1,1.2l0,0l1.6-1.1l0.5,0.7l-4.6,3.3L71,38.1L71.4,37.8z M73.5,35.3c-0.3-0.4-0.7-0.3-1.7,0.4
			c-0.8,0.6-1.2,1-0.9,1.5c0.3,0.5,0.9,0.2,1.7-0.3C73.5,36.2,73.9,35.8,73.5,35.3z"/>
		<path class="st1" d="M74,39.2l-0.2,0.1c-0.5,0.3-1.1,0.7-0.8,1.2c0.3,0.6,0.9,0.3,1.2,0.2l0.4,0.7c-0.8,0.4-1.6,0.2-2.1-0.7
			c-0.3-0.6-0.5-1.5,1.3-2.4c1-0.5,2.2-0.8,2.8,0.4c0.5,1.1,0,1.7-1,2.2l-0.4,0.2L74,39.2z M75.2,40.2l0.2-0.1
			c0.5-0.2,0.8-0.6,0.6-1c-0.2-0.5-0.8-0.4-1.3-0.1l-0.1,0L75.2,40.2z"/>
		<path class="st1" d="M78.1,42.8c0.4,1.2-0.4,1.8-1.7,2.2c-1.3,0.4-2.3,0.3-2.7-0.8c-0.4-1.1,0.4-1.8,1.7-2.2
			C76.8,41.5,77.7,41.6,78.1,42.8z M74.4,44c0.2,0.6,0.7,0.5,1.8,0.2c0.9-0.3,1.5-0.6,1.3-1.2c-0.2-0.6-0.9-0.5-1.8-0.2
			C74.7,43.1,74.2,43.4,74.4,44z"/>
	</g>
	<g>
		<path class="st1" d="M42,74.8l1.9,0.6c0.8,0.2,1.3,0.8,1,1.8c-0.2,0.7-0.7,1.2-1.3,1.1l0,0c0.5,0.2,0.7,0.6,0.5,1.4
			c-0.1,0.4-0.2,0.8-0.3,1.1c-0.1,0.3,0,0.4,0.1,0.6l-1-0.3c-0.1-0.1,0-0.3,0-0.5c0.1-0.3,0.2-0.6,0.3-1c0.2-0.6,0.1-0.9-0.5-1.1
			l-0.7-0.2l-0.7,2.4l-0.9-0.3L42,74.8z M42.8,77.7c0.6,0.2,1-0.1,1.1-0.6c0.2-0.6,0-1-0.6-1.1l-0.7-0.2l-0.5,1.8L42.8,77.7z"/>
		<path class="st1" d="M47.9,81c0,0.2,0.1,0.3,0.2,0.3c0.1,0,0.1,0,0.1,0l-0.1,0.6c-0.1,0-0.3,0.1-0.4,0c-0.4-0.1-0.7-0.2-0.6-0.7
			l0,0c-0.3,0.4-0.6,0.5-1.1,0.5c-0.7-0.1-1.1-0.5-0.9-1.3c0.1-1,0.6-1.1,1.2-1.2l0.7-0.1c0.3,0,0.5-0.1,0.6-0.5
			c0.1-0.4,0-0.7-0.5-0.7c-0.6-0.1-0.7,0.3-0.8,0.7l-0.8-0.1c0.1-0.9,0.6-1.4,1.7-1.2c0.8,0.1,1.3,0.5,1.2,1.2L47.9,81z M47.3,79.6
			c-0.2,0.1-0.7,0.2-1,0.3c-0.3,0.1-0.4,0.3-0.4,0.6c0,0.4,0.1,0.7,0.4,0.7c0.5,0.1,0.8-0.3,0.9-0.9L47.3,79.6z"/>
		<path class="st1" d="M49,77.7l0.6,0l0-1.2l0.9,0l0,1.2l0.7,0l0,0.6l-0.7,0l0,2.6c0,0.3,0.1,0.5,0.4,0.5c0.1,0,0.2,0,0.3,0l0,0.6
			c-0.2,0-0.4,0.1-0.7,0.1c-0.6,0-0.9-0.2-0.9-1.1l0-2.7l-0.6,0L49,77.7z"/>
		<path class="st1" d="M51.7,76.2l0.9-0.1l0.1,0.9l-0.9,0.1L51.7,76.2z M51.8,77.7l0.9-0.1l0.3,4.3L52.1,82L51.8,77.7z"/>
		<path class="st1" d="M53.7,77.6l0.8-0.1l0.1,0.5l0,0c0.1-0.4,0.5-0.7,1-0.8c0.6-0.1,1.1,0.1,1.3,1l0.6,3.2l-0.9,0.2l-0.5-2.9
			c-0.1-0.6-0.3-0.7-0.7-0.7c-0.3,0.1-0.6,0.4-0.5,1l0.5,2.8l-0.9,0.2L53.7,77.6z"/>
		<path class="st1" d="M59.8,81c0.1,0.3,0.4,0.4,0.8,0.3c0.4-0.1,0.6-0.5,0.4-1l-0.2-0.7l0,0c0,0.4-0.3,0.7-0.7,0.9
			c-1,0.3-1.5-0.5-1.9-1.6c-0.3-0.9-0.6-2.1,0.6-2.5c0.5-0.2,0.9,0,1.1,0.3l0,0l-0.2-0.5l0.8-0.3l1.3,3.9c0.3,1,0.1,1.7-1,2.1
			c-1.2,0.4-1.6-0.3-1.7-0.6L59.8,81z M60,79.7c0.6-0.2,0.4-1,0.2-1.7c-0.2-0.7-0.6-1.4-1.1-1.2c-0.6,0.2-0.5,0.8-0.2,1.6
			C59.1,79.2,59.4,79.9,60,79.7z"/>
	</g>
	<path class="st2" d="M69.2,64.1c0,1.6-1.1,2.9-2.4,2.9H34.6c-1.3,0-2.4-1.3-2.4-2.9V39.9c0-1.6,1.1-2.9,2.4-2.9h32.2
		c1.3,0,2.4,1.3,2.4,2.9V64.1z"/>
	<path class="st3" d="M51,66.3c0,0,0-1.8,0-2.2s0.4-0.4,0.5-0.4c0.2,0,1.8,0.5,1.8,0.5s-0.2-0.5-0.1-0.8c0.1-0.3,2.7-2.1,2.7-2.1
		s-0.8,0.2-1-0.3c-0.2-0.5,0.5-1.5,0.5-1.5s-1.5,0.6-1.7,0.4s0-1.1,0-1.1s-0.7,0.9-1,1.3c-0.3,0.4-0.6,0.7-0.8,0.5
		c-0.2-0.2,0-0.4,0-0.4l0.7-3c0,0-0.5,0.5-1,0.5c-0.5,0-0.9-1.6-0.9-1.6s-0.4,1.6-0.9,1.6s-1-0.5-1-0.5l0.7,3c0,0,0.1,0.3,0,0.4
		c-0.2,0.2-0.5-0.1-0.8-0.5c-0.3-0.4-1-1.3-1-1.3s0.2,0.9,0,1.1s-1.7-0.4-1.7-0.4s0.7,1,0.5,1.5c-0.2,0.5-1,0.3-1,0.3
		s2.6,1.8,2.7,2.1s-0.1,0.8-0.1,0.8s1.6-0.4,1.8-0.5c0.2,0,0.5,0,0.5,0.4s0,2.2,0,2.2H51z"/>
	<path class="st3" d="M65.1,40.3h0.6v4.3h-0.9c0,0-0.9-3.9-4.9-3.9c-4.1,0-5.7,3.8-5.7,6.4c0,2.6,1.4,7,5.9,7c1.7,0,2.4-0.6,2.4-0.6
		s0-2.9,0-3.5c0-0.6-0.2-0.8-0.5-0.9c-0.3-0.1-0.8-0.4-2.4-0.4c0-0.3,0-0.9,0-0.9h7.9v0.9c0,0-1.7-0.2-1.7,1.3c0,1.5,0,3.7,0,3.7
		s-3.1,1.5-6.2,1.5c-3.2,0-8.1-1-8.8-6.9c-0.7-5.9,4.8-8.5,8-8.5c2.8,0,4.4,0.5,4.8,0.6C64,40.6,64.8,40.8,65.1,40.3z"/>
	<g>
		<g>
			<path class="st3" d="M49.5,44.4c0-4.4-5.8-4.7-6.8-4.7s-7.5,0.4-7.5,0.4v1c0,0,0.5,0,0.7,0s1.5-0.1,1.5,1.2v10.4
				c0,0.8,0,1.4-2.1,1.4c0,0.5,0,0.9,0,0.9h8.1v-0.9c0,0-0.5,0-1,0c-0.6,0-1.8-0.1-1.8-1.8c0-1.7,0-3.5,0-3.5S49.5,50.3,49.5,44.4z
				 M40.7,41c3.2-0.7,5.2,0.5,5.2,3.3c0,4.8-5.2,3.5-5.2,3.5V41z"/>
		</g>
	</g>
</g>
</svg>
